i,j,weight
Ccnb2,Ccne1,0.889
Ccnd1,Cdkn1a,0.874
Ccnd1,Cdkn1b,0.864
Dbf4,Mcm3,0.860
Ccnb2,Cdk2,0.851
Chek1,Dbf4,0.844
Ccnd1,Cdk1,0.839
Ccnd1,Cdkn2c,0.839
Ccnb2,Pcna,0.839
Ccnb2,Cdkn1a,0.836
Dbf4,Orc1,0.833
Ccnd1,Cdk2,0.830
Ccnb2,Smc3,0.830
Cdc25a,Plk1,0.828
Ccnb2,Ccnh,0.827
Ccnd1,Ccnh,0.820
Ccnd1,Cdk4,0.815
Bub1,Mad1l1,0.811
Ccnb2,Stag1,0.809
Mad1l1,Mad2l1,0.809
Plk1,Trp53,0.807
Cdc20,Cdk2,0.802
Cdc25a,Cdc25b,0.802
Anapc1,Cdk1,0.799
Mad1l1,Ttk,0.798
Anapc1,Mad2l1,0.794
Ccnb2,Ccnd1,0.792
Cdc20,Skp2,0.792
Chek1,Wee1,0.791
Cdkn2a,Mdm2,0.790
Plk1,Smc3,0.788
Ccnb2,Rad21,0.785
Plk1,Smc1a,0.785
E2f1,Mdm2,0.784
Cdk1,Tfdp1,0.783
Cdc25a,Cdk1,0.782
Cdk1,Smc1a,0.781
Ccnb2,Cdc25a,0.780
Bub1,Mad2l1,0.780
Cdkn2a,Trp53,0.780
Abl1,Cdkn1b,0.777
Ccnb2,Pkmyt1,0.777
Ccnb2,Plk1,0.774
Ccnb2,Cdk4,0.773
Bub1,Cdc20,0.772
Espl1,Smc1a,0.771
Ccnd1,Cdc25a,0.771
Espl1,Pttg1,0.770
Chek1,Trp53,0.769
Cdkn2c,Trp53,0.768
Mdm2,Trp53,0.767
Bub1b,Mad1l1,0.767
Anapc1,Cdkn1b,0.766
Cdc7,Dbf4,0.765
Anapc1,Cdc20,0.765
Ccnb2,Cdc25b,0.760
Cdc20,Mad2l1,0.757
Cdk4,Cdkn2c,0.757
Cdk1,Smc3,0.756
Chek1,Orc1,0.755
Cdkn1b,Trp53,0.754
Abl1,Ccnd1,0.754
Bub1,Bub3,0.753
Cdk4,Rb1,0.752
Ccnb2,Cdk1,0.752
Cdc25b,Cdk2,0.750
Ccnd1,Pcna,0.749
Bub3,Mad1l1,0.748
Ccnd1,Rbl1,0.748
Bub1,Bub1b,0.746
Ccnd1,Tfdp1,0.746
Ccnd1,Ccne1,0.745
Mad2l1,Ttk,0.744
Bub3,Cdc20,0.743
Smc1a,Stag1,0.742
Cdc6,Cdk1,0.742
Bub1b,Mad2l1,0.741
Cdc20,Cdk1,0.740
Anapc1,Bub3,0.740
Cdc25b,Chek1,0.740
Cdk1,E2f4,0.739
Plk1,Pttg1,0.738
Cdk1,Skp2,0.737
Cdc6,Cdkn1b,0.736
Rad21,Smc3,0.734
Anapc1,Bub1,0.734
Anapc1,Bub1b,0.734
Cdc25a,Chek1,0.733
Cdk1,Stag1,0.732
Rad21,Smc1a,0.730
Pkmyt1,Plk1,0.729
Bub3,Mad2l1,0.728
Cdk2,Cdkn1b,0.728
Cdc7,Chek1,0.727
Cdk1,Cdkn1a,0.727
Anapc1,Cdkn1a,0.725
Ccnd1,Gsk3b,0.725
Cdk1,Rad21,0.724
Cdkn2b,Mdm2,0.723
Cdk1,Rb1,0.723
Chek1,Mcm3,0.723
Cdk1,Cdk4,0.719
Cdk4,Cdkn1b,0.719
Bub1,Plk1,0.718
Ccnd1,E2f4,0.717
Bub1b,Bub3,0.714
Bub1b,Cdc20,0.713
Bub1b,Plk1,0.712
Cdc20,Plk1,0.710
Cdk1,Wee1,0.709
E2f1,Rb1,0.707
Ccnh,Cdk1,0.707
Cdkn1a,Mdm2,0.706
Ccnb2,Smc1a,0.706
Cdkn2b,Trp53,0.706
Cdc45,Chek1,0.705
Plk1,Wee1,0.705
Plk1,Stag1,0.705
Bub1,Cdk1,0.704
Ccne1,Cdkn1b,0.702
Cdkn1b,Rb1,0.698
Ccnb2,Cdc20,0.697
Cdc25b,Plk1,0.694
Cdkn1a,Cdkn1b,0.692
Espl1,Stag1,0.692
Cdk1,Rbl1,0.691
Ccnb2,Gadd45a,0.689
Espl1,Smc3,0.689
Cdk1,Mdm2,0.688
Smc1a,Smc3,0.686
Cdc25b,Pkmyt1,0.685
Ccnb2,Cdc6,0.685
Cdk4,Cdkn2b,0.683
Ccnd1,Cdkn2b,0.676
Plk1,Rad21,0.673
Bub1b,Cdk1,0.672
Cdk1,Plk1,0.671
Cdk4,Gsk3b,0.669
Cdc25b,Cdk1,0.666
Ccnh,Cdkn1b,0.665
Cdk4,Cdkn1a,0.663
Cdk1,Cdk2,0.662
Cdkn1b,Skp2,0.660
Cdc20,Pttg1,0.660
Cdc25a,Pkmyt1,0.660
Rb1,Trp53,0.659
Espl1,Rad21,0.656
Cdkn1b,Rbl1,0.656
Cdkn1b,E2f1,0.654
Cdk1,Pcna,0.652
Ccnd1,Cdkn2d,0.650
Cdkn1a,Rb1,0.648
Cdk4,Tfdp1,0.645
Cdk2,Wee1,0.644
Cdkn1b,E2f4,0.641
Ccnd1,Rb1,0.641
Cdkn1a,Rbl1,0.639
Anapc1,Cdc6,0.639
Cdk1,Cdkn1b,0.639
Cdc7,Orc1,0.636
Cdkn1a,E2f1,0.633
Rad21,Stag1,0.630
Cdk1,Gadd45a,0.621
Cdk2,Chek1,0.618
E2f4,Rb1,0.617
Ccnd1,E2f1,0.616
Hdac2,Rb1,0.616
Cdkn1b,Tfdp1,0.615
Cdc6,Chek1,0.614
Bub1,Crebbp,0.614
Abl1,Cdk4,0.613
Mcm3,Orc1,0.613
Cdkn1a,Smad4,0.612
Ccnd1,Crebbp,0.611
Atm,Cdk4,0.610
Cdk4,Rbl1,0.610
Cdc25a,Cdk4,0.610
Crebbp,Plk1,0.609
Ccne1,Wee1,0.607
Cdc7,Mcm3,0.603
Cdk1,Pkmyt1,0.601
Cdc45,Orc1,0.598
Atm,Chek1,0.595
Bub1b,Crebbp,0.592
Cdkn1a,Cdkn2d,0.588
Mdm2,Rb1,0.585
Ccne1,Cdk1,0.583
Cdk4,Cdkn2d,0.581
Atm,Trp53,0.581
E2f1,Tfdp1,0.578
Hdac2,Rbl1,0.577
Ccnh,Cdk4,0.570
Ccnh,Cdkn2d,0.569
Cdk2,Mdm2,0.568
Hdac2,Trp53,0.565
Smc3,Stag1,0.564
Anapc1,Cdk2,0.560
Cdk2,Cdkn2d,0.560
Cdkn1a,Skp2,0.559
Cdk4,Skp2,0.559
Cdkn1a,Crebbp,0.558
Cdc45,Cdc7,0.557
Ccnh,Cdkn1a,0.555
Prkdc,Trp53,0.553
Cdk4,E2f1,0.551
Cdk2,Rb1,0.548
Cdkn2d,Pcna,0.548
Ccne1,Rb1,0.548
Cdkn1a,Trp53,0.548
Crebbp,E2f1,0.546
Gsk3b,Trp53,0.544
Atm,Smc1a,0.537
Rb1,Rbl1,0.535
E2f1,E2f4,0.535
E2f4,Skp2,0.530
Cdc6,Cdkn1a,0.526
E2f1,Rbl1,0.525
Cdk2,Pkmyt1,0.524
Cdkn1a,Pcna,0.523
Orc1,Skp2,0.523
Cdc45,Mcm3,0.522
E2f4,Rbl1,0.520
Cdk2,Cdkn1a,0.516
Cdkn1a,Tfdp1,0.511
Ccne1,Cdkn1a,0.510
Cdc6,Orc1,0.510
Rb1,Skp2,0.509
Cdc7,Cdk2,0.506
Cdk1,Cdkn2d,0.506
Cdk2,Orc1,0.500
Hdac2,Smad2,0.498
Rbl1,Smad4,0.497
Atm,E2f1,0.497
E2f1,Skp2,0.497
Abl1,Mdm2,0.496
Crebbp,Trp53,0.489
Ccne1,Cdkn2d,0.489
Smad2,Smad4,0.488
E2f4,Tfdp1,0.486
Ccne1,Orc1,0.484
Rbl1,Smad2,0.483
Cdk2,Cdk4,0.480
Cdk4,Pcna,0.479
Smad2,Trp53,0.478
Cdk4,E2f4,0.475
Crebbp,Smad4,0.472
Ccne1,Tfdp1,0.467
Abl1,Rb1,0.467
Atm,Mdm2,0.467
Crebbp,Rb1,0.467
Cdk2,Mcm3,0.464
E2f4,Hdac2,0.459
Ccne1,Cdc25a,0.458
Crebbp,Hdac2,0.456
Crebbp,Mdm2,0.456
Ccne1,Cdk4,0.449
Rb1,Tfdp1,0.446
Cdk2,E2f1,0.442
Smad4,Tfdp1,0.442
Ccnh,Cdk2,0.441
Ccne1,E2f4,0.439
Ccne1,Ccnh,0.439
Atm,Smc3,0.438
Cdk2,Rbl1,0.431
Cdk2,E2f4,0.431
Rbl1,Tfdp1,0.429
Cdk2,Tfdp1,0.425
Ccne1,Rbl1,0.422
Atm,Prkdc,0.422
E2f4,Smad2,0.422
Cdc6,Mcm3,0.421
Cdk1,Sfn,0.421
Myc,Skp2,0.420
Cdc45,Cdc6,0.420
Ccnh,Pcna,0.413
Cdc25a,Cdk2,0.411
Cdk2,Trp53,0.409
Atm,Cdk2,0.399
E2f1,Myc,0.393
Ccne1,E2f1,0.387
Abl1,Atm,0.385
Crebbp,Smad2,0.376
Cdc6,Cdk2,0.376
Cdk2,Skp2,0.370
Smad2,Tfdp1,0.370
Ccne1,Cdk2,0.369
Ccne1,Pcna,0.365
Abl1,Cdkn1a,0.359
Abl1,Cdk2,0.356
Cdkn1a,E2f4,0.352
Crebbp,Tfdp1,0.350
Atm,Pcna,0.347
Crebbp,Skp2,0.328
E2f4,Smad4,0.324
Cdk2,Pcna,0.320
Sfn,Trp53,0.318
Crebbp,Myc,0.315
Cdc25b,Sfn,0.312
Ccne1,Cdc6,0.308
Cdk4,Gadd45a,0.305
Ccnb2,Sfn,0.295
Gsk3b,Myc,0.268
Cdkn2b,Myc,0.250
Gadd45a,Trp53,0.207
Cdkn1a,Gadd45a,0.184
Gadd45a,Pcna,0.157
Smad4,Tgfb1,0.057
Smad2,Tgfb1,0.042
