i,j,weight
Smad2,Tgfb1,0.860
Smad4,Tgfb1,0.837
Cdkn1a,Smad4,0.766
Gsk3b,Myc,0.761
E2f4,Smad4,0.751
E2f4,Smad2,0.679
Abl1,Cdkn1a,0.659
Crebbp,Myc,0.657
Cdkn1a,E2f4,0.651
Sfn,Trp53,0.647
Cdkn1a,Gadd45a,0.627
E2f4,Hdac2,0.626
Myc,Skp2,0.620
E2f4,Rb1,0.606
Cdkn2b,Myc,0.583
Crebbp,Smad4,0.544
Smad2,Smad4,0.529
E2f4,Skp2,0.513
Gadd45a,Trp53,0.480
E2f4,Tfdp1,0.475
Ccnh,Cdkn1a,0.455
Cdkn1a,Crebbp,0.446
Abl1,Mdm2,0.418
Cdk4,Gadd45a,0.406
Abl1,Rb1,0.375
Smad4,Tfdp1,0.349
Crebbp,Mdm2,0.304
Crebbp,Hdac2,0.301
Abl1,Cdk4,0.296
Crebbp,Rb1,0.296
Gsk3b,Trp53,0.286
Crebbp,Smad2,0.285
Cdkn1a,Rb1,0.270
Cdkn2a,Mdm2,0.254
Ccnd1,Ccnh,0.251
Cdk4,Gsk3b,0.247
Cdkn1a,Mdm2,0.244
Ccnh,Cdk4,0.244
Abl1,Ccnd1,0.240
Crebbp,Trp53,0.225
Crebbp,Tfdp1,0.218
Cdk4,E2f4,0.217
Cdk2,E2f4,0.215
Cdkn2b,Mdm2,0.210
Ccnd1,Gsk3b,0.195
Cdkn2a,Trp53,0.193
Cdkn2b,Trp53,0.182
Crebbp,Skp2,0.182
Rb1,Skp2,0.172
Cdkn1a,Skp2,0.161
Mdm2,Rb1,0.159
Abl1,Cdkn1b,0.159
Rb1,Trp53,0.158
Ccnh,Cdkn1b,0.154
Ccnd1,Crebbp,0.153
Gadd45a,Pcna,0.152
Ccnd1,E2f4,0.149
Cdkn1a,Trp53,0.144
Smc3,Stag1,0.143
Ccnd1,Cdkn1a,0.139
Ccnh,Cdk2,0.133
Ccnd1,Cdk4,0.129
Hdac2,Rb1,0.127
Cdk4,Tfdp1,0.127
Cdk4,Cdkn1a,0.127
Ccnd1,Tfdp1,0.124
Abl1,Cdk2,0.124
Mdm2,Trp53,0.122
Hdac2,Trp53,0.121
Abl1,Atm,0.119
Ccnh,Pcna,0.118
Smad2,Tfdp1,0.116
Rb1,Tfdp1,0.113
Cdkn1b,E2f4,0.112
Cdk4,Cdkn2b,0.106
Ccnd1,Cdc25a,0.105
Cdc25a,Cdk4,0.104
Smc1a,Stag1,0.104
Cdk4,Rb1,0.102
Cdkn1a,Pcna,0.097
Cdk4,Skp2,0.095
Cdc25a,Chek1,0.092
E2f1,Myc,0.092
Cdkn1a,Cdkn1b,0.092
Atm,Mdm2,0.089
Rbl1,Smad4,0.089
Anapc1,Cdc6,0.088
Chek1,Trp53,0.088
Atm,Prkdc,0.087
Prkdc,Trp53,0.087
Hdac2,Rbl1,0.085
Ccnd1,Rb1,0.085
Rad21,Smc3,0.083
Ccnd1,Cdkn1b,0.083
Ccnd1,Pcna,0.082
Anapc1,Cdkn1a,0.082
Cdkn1b,Trp53,0.082
Atm,Cdk4,0.081
Ccnd1,Rbl1,0.081
Atm,Smc3,0.079
E2f1,Mdm2,0.079
Cdkn1a,Rbl1,0.078
Cdk4,Rbl1,0.078
Cdc25b,Sfn,0.078
Ccnd1,Cdk2,0.077
Cdc6,Cdkn1a,0.076
E2f4,Rbl1,0.076
Cdk2,Rb1,0.076
E2f1,E2f4,0.075
Rad21,Stag1,0.074
Cdk2,Mdm2,0.073
Cdk4,Cdkn1b,0.073
Ccnh,Cdkn2d,0.071
Cdkn1a,E2f1,0.071
Anapc1,Cdk2,0.069
Cdc6,Cdkn1b,0.069
E2f1,Rb1,0.068
Cdkn1b,Rb1,0.068
Hdac2,Smad2,0.067
E2f1,Tfdp1,0.066
Atm,Trp53,0.066
Anapc1,Cdkn1b,0.066
Smc1a,Smc3,0.064
Cdkn1b,Tfdp1,0.063
Cdk2,Cdkn1a,0.062
Cdkn1a,Cdkn2d,0.062
Cdk2,Tfdp1,0.061
Cdk4,E2f1,0.061
Rbl1,Tfdp1,0.060
Rb1,Rbl1,0.060
Cdkn1b,Skp2,0.060
Rbl1,Smad2,0.060
Cdc7,Mcm3,0.059
Crebbp,E2f1,0.057
Mcm3,Orc1,0.057
Cdk4,Pcna,0.057
Orc1,Skp2,0.056
Ccne1,Ccnh,0.055
Ccnd1,E2f1,0.055
Cdkn1b,Rbl1,0.055
E2f1,Skp2,0.054
Cdkn1a,Tfdp1,0.053
Cdk2,Chek1,0.053
Cdc7,Orc1,0.052
Atm,Smc1a,0.052
Chek1,Orc1,0.052
Cdk2,Skp2,0.050
Atm,Cdk2,0.050
Ccnd1,Cdkn2b,0.049
Cdc25a,Cdk2,0.049
Anapc1,Bub3,0.049
Chek1,Mcm3,0.048
Cdk2,Cdkn1b,0.047
Cdkn1b,E2f1,0.047
Cdk4,Cdkn2d,0.046
Bub3,Mad1l1,0.045
Ccnd1,Ccne1,0.045
Cdk2,Mcm3,0.043
Cdc6,Orc1,0.042
E2f1,Rbl1,0.042
Cdc7,Cdk2,0.041
Smad2,Trp53,0.041
Cdk2,Wee1,0.040
Atm,E2f1,0.040
Ccnd1,Cdkn2d,0.040
Cdk2,Cdk4,0.040
Cdkn2d,Pcna,0.040
Rad21,Smc1a,0.040
Cdk2,Trp53,0.039
Cdk2,Cdkn2d,0.037
Cdc6,Cdk2,0.037
Cdc6,Mcm3,0.037
Cdk1,Sfn,0.036
Chek1,Wee1,0.036
Crebbp,Plk1,0.035
Ccne1,Tfdp1,0.034
Cdk2,Rbl1,0.034
Ccne1,Cdkn1a,0.034
Cdc6,Chek1,0.033
Ccne1,Rb1,0.033
Ccne1,E2f4,0.033
Ccne1,Cdkn1b,0.032
Cdk2,Orc1,0.032
Ccne1,Cdk4,0.032
Cdk2,E2f1,0.030
Cdc7,Chek1,0.029
Cdc45,Chek1,0.029
Ccne1,Cdc25a,0.028
Ccnb2,Ccnh,0.028
Ccnd1,Cdkn2c,0.028
Atm,Chek1,0.028
Chek1,Dbf4,0.027
Cdk4,Cdkn2c,0.027
Cdc25a,Cdc25b,0.027
Atm,Pcna,0.027
Dbf4,Mcm3,0.026
Cdc45,Orc1,0.026
Ccnh,Cdk1,0.024
Cdc45,Mcm3,0.024
Ccne1,Orc1,0.023
Bub1b,Crebbp,0.022
Cdc25b,Chek1,0.022
Cdc45,Cdc7,0.022
Bub1,Crebbp,0.022
Cdc7,Dbf4,0.022
Ccne1,Rbl1,0.022
Plk1,Smc3,0.021
Ccnb2,Gadd45a,0.021
Cdk1,E2f4,0.020
Plk1,Stag1,0.020
Cdk1,Gadd45a,0.019
Ccnb2,Sfn,0.019
Dbf4,Orc1,0.019
Cdc25b,Cdk2,0.019
Cdc45,Cdc6,0.018
Espl1,Stag1,0.018
Ccne1,Pcna,0.018
Cdkn2c,Trp53,0.018
Cdc6,Cdk1,0.017
Ccne1,E2f1,0.017
Ccnb2,Stag1,0.017
Ccnd1,Cdk1,0.016
Cdc25a,Pkmyt1,0.016
Ccne1,Cdk2,0.016
Cdc25a,Plk1,0.015
Cdc20,Skp2,0.015
Ccne1,Cdc6,0.015
Cdk1,Stag1,0.015
Ccnb2,Cdk4,0.014
Bub3,Cdc20,0.014
Cdc25a,Cdk1,0.014
Ccnb2,Ccnd1,0.014
Cdk1,Tfdp1,0.013
Espl1,Smc3,0.013
Ccne1,Cdkn2d,0.013
Plk1,Trp53,0.013
Cdk1,Smc3,0.013
Cdc20,Cdk2,0.012
Bub3,Mad2l1,0.012
Plk1,Rad21,0.012
Ccnb2,Smc3,0.012
Cdk1,Cdk4,0.012
Cdk1,Rbl1,0.012
Ccne1,Wee1,0.012
Plk1,Smc1a,0.012
Cdk1,Rb1,0.011
Anapc1,Cdc20,0.011
Cdk1,Cdkn1a,0.011
Ccnb2,Cdc6,0.011
Anapc1,Cdk1,0.011
Plk1,Wee1,0.010
Cdk1,Skp2,0.010
Anapc1,Bub1,0.010
Ccnb2,Cdkn1a,0.010
Ccnb2,Cdc25a,0.010
Espl1,Smc1a,0.010
Anapc1,Mad2l1,0.009
Cdk1,Mdm2,0.009
Ccnb2,Pcna,0.008
Cdk1,Rad21,0.008
Ccnb2,Ccne1,0.008
Mad1l1,Ttk,0.008
Cdk1,Cdkn2d,0.008
Bub1b,Mad1l1,0.007
Cdk2,Pkmyt1,0.007
Cdk1,Wee1,0.007
Cdk1,Cdkn1b,0.007
Ccnb2,Smc1a,0.007
Cdk2,Pcna,0.006
Mad1l1,Mad2l1,0.006
Ccne1,Cdk1,0.006
Cdc25b,Plk1,0.006
Cdk1,Cdk2,0.006
Anapc1,Bub1b,0.006
Espl1,Rad21,0.005
Cdk1,Smc1a,0.005
Bub1,Bub3,0.005
Bub1b,Bub3,0.005
Ccnb2,Cdk2,0.005
Ccnb2,Cdc25b,0.004
Cdc20,Pttg1,0.004
Cdk1,Pcna,0.004
Espl1,Pttg1,0.003
Cdc25b,Cdk1,0.003
Ccnb2,Pkmyt1,0.003
Cdc20,Mad2l1,0.003
Cdc25b,Pkmyt1,0.003
Cdc20,Cdk1,0.002
Cdk1,Plk1,0.002
Mad2l1,Ttk,0.002
Cdk1,Pkmyt1,0.002
Bub1,Plk1,0.002
Plk1,Pttg1,0.002
Bub1b,Plk1,0.002
Ccnb2,Cdc20,0.002
Pkmyt1,Plk1,0.002
Bub1,Mad1l1,0.002
Bub1b,Cdc20,0.002
Bub1,Cdc20,0.001
Cdc20,Plk1,0.001
Ccnb2,Cdk1,0.001
Bub1,Mad2l1,0.001
Bub1,Cdk1,0.001
Bub1b,Mad2l1,0.001
Ccnb2,Plk1,0.001
Ccnb2,Rad21,0.001
Bub1,Bub1b,0.001
Bub1b,Cdk1,0.000
