BUB2-TEM1,CDC14-CDH1,CDC14-NET1,CDC14-SIC1,CDC14-SWI5,CDC15-TEM1,CDC20-CDH1,CDC20-CLB6,CDC20-PDS1,CDC28-CDC6,CDC28-CLB1,CDC28-CLB6,CDC28-CLN1,CDC28-CLN3,CDC6-CLB6,CDH1-CLB1,CLB1-SIC1,CLB1-SWI5,CDC28-SWI5,CLB6-MBP1,CLB6-SIC1,CLB6-SWI6,CDC28-SWI6,CLN1-SIC1,CDC28-SIC1,CLN1-SWI4,CLN1-SWI6,CLN3-MCM1,CLN3-SWI6,ESP1-PDS1,LTE1-TEM1,MBP1-SWI6,SIC1-SWI5,SWI4-SWI6
0.18077938600000001,0.4357937175104622,0.008732563693911401,0.01071462769068533,0.4478129177979265,0.5934381089098741,0.41341760169056047,0.02301642193020606,0.01137947804197246,7.2451476e-05,0.14692272,0.051804189,0.065251179,0.0,7.2451476e-05,0.1367114822371872,0.23840472,0.140481987915864,0.140481987915864,0.00011964294527017139,0.070081495,0.00011964294527017139,0.0,0.001492796180045331,0.001492796180045331,0.0001506990725771454,0.0001506990725771454,0.0,0.0,0.00771734242243566,0.09038969300000001,0.0023095226,0.02187478716457805,0.0023095226
0.157104278,0.3849690711205218,0.00920306664914044,0.0437862711137851,0.3479951715780253,0.4970240802455016,0.3953511964872096,0.00201386234170304,0.00657891484477584,0.00010715033,0.012604946,0.005089276,0.057872605,0.0,0.00010715033,0.012593610876260042,0.23372395,0.01138407240071234,0.01138407240071234,3.6836694722731204e-05,0.11262412,3.6836694722731204e-05,0.0,0.00657649409960515,0.00657649409960515,0.000418887771697626,0.000418887771697626,0.0,0.0,0.006294394891129799,0.078552139,0.0072381012,0.1026308823973447,0.0072381012
0.136427664,0.3537130725961488,0.00938260663352136,0.10040433112093321,0.2983661971491348,0.41160368113570556,0.3329291523474688,0.00021729277234389758,0.00413786497286848,0.0001048537,0.0026484339,0.00065244746,0.051328395,0.0,0.0001048537,0.002647532055288372,0.17985319,0.002233262303168337,0.002233262303168337,5.6366135267831486e-06,0.11137927,5.6366135267831486e-06,0.0,0.01456502081794065,0.01456502081794065,0.000443435438564001,0.000443435438564001,0.0,0.0,0.00556320835106148,0.068213832,0.0086391838,0.23927868996188012,0.0086391838
0.11757240200000002,0.3322823282009224,0.00958296132253488,0.14732688449063758,0.2610071209380992,0.3359017894356364,0.2725316423160886,0.0001031265402633554,0.0026966971832515004,0.00010015467,0.00094604777,0.00037828879,0.045524202,0.0,0.00010015467,0.0009457645327581397,0.13032135,0.0007428961964877776,0.0007428961964877776,3.3482196674871014e-06,0.10652746,3.3482196674871014e-06,0.0,0.020178415432029778,0.020178415432029778,0.00040293297742990383,0.00040293297742990383,0.0,0.0,0.00498533953135075,0.05878620100000001,0.0088509619,0.34806454412956317,0.0088509619
0.10019138999999999,0.30566649897497283,0.009861002585322,0.1783693197547128,0.2233901324011728,0.26895210413892595,0.219721311832732,6.0144230194658005e-05,0.0018066237239802102,9.6088275e-05,0.00041324788,0.00027365042,0.040376347,0.0,9.6088275e-05,0.0004131283191233584,0.091693327,0.0003019264139744584,0.0003019264139744584,2.421872194116262e-06,0.10256727,2.421872194116262e-06,0.0,0.02355448804026021,0.02355448804026021,0.00035734040568726166,0.00035734040568726166,0.0,0.0,0.004518978773830512,0.050095694999999996,0.0088502411,0.42622323368695736,0.0088502411
0.08420996,0.27136321383159023,0.01018908704062982,0.1914020419501235,0.1844937695023903,0.210406745005124,0.1753482299746876,3.8454619699081196e-05,0.001234593070689924,9.2720889e-05,0.00020657972,0.00021923934,0.035810605,0.0,9.2720889e-05,0.0002065185352185304,0.063556574,0.0001404073252840556,0.0001404073252840556,1.930679112594948e-06,0.099479251,1.930679112594948e-06,0.0,0.025251001194941752,0.025251001194941752,0.000315357577170631,0.000315357577170631,0.0,0.0,0.004135298821263126,0.04210498,0.0088062622,0.4792576192416605,0.0088062622
0.069691754,0.2312186248183186,0.010578059877455921,0.1875971369771224,0.146275543838414,0.1602841312317663,0.13887866386979258,2.6034415963439e-05,0.0008570359551784159,8.9947127e-05,0.0001180359,0.00018740185,0.031761155,0.0,8.9947127e-05,0.00011799828077831099,0.043820217,7.464910193289001e-05,7.464910193289001e-05,1.6418333423466103e-06,0.097101465,1.6418333423466103e-06,0.0,0.025760912553725798,0.025760912553725798,0.000278260450846343,0.000278260450846343,0.0,0.0,0.0038195397618299037,0.034845877,0.0087610306,0.512950464795956,0.0087610306
0.056787616,0.1880860950827744,0.01093032861770679,0.1700657845182133,0.110767613122051,0.118688914230088,0.1093612458147584,1.8176267426746397e-05,0.0006008604221866,8.7647408e-05,7.4398064e-05,0.00016614419,0.028169617,0.0,8.7647408e-05,7.437132831172096e-05,0.030281935,4.37987429011184e-05,4.37987429011184e-05,1.4500407802928549e-06,0.095284477,1.4500407802928549e-06,0.0,0.02546156551833391,0.02546156551833391,0.0002458532760924765,0.0002458532760924765,0.0,0.0,0.0035483825024889,0.028393808,0.0087276045,0.5321133709174629,0.0087276045
0.045696178000000004,0.14553855094453952,0.011182368742685602,0.1435145021073265,0.0798328607253075,0.08562444275468821,0.08575153074487725,1.29874926042795e-05,0.0004246885184256825,8.5715918e-05,5.1614723e-05,0.00015139086,0.024984209,0.0,8.5715918e-05,5.159288635914039e-05,0.021118641,2.830045843108215e-05,2.830045843108215e-05,1.3184199139012442e-06,0.093904577,1.3184199139012442e-06,0.0,0.02462632294802159,0.02462632294802159,0.00021758036567511862,0.00021758036567511862,0.0,0.0,0.003313691795377755,0.022848089000000002,0.0087087154,0.5404479027677954,0.0087087154
0.036605132000000005,0.108457402229718,0.011446672937778901,0.11483282079921002,0.055448019828470405,0.060707631084358796,0.0670451501107658,9.447948230302879e-06,0.00030230198276972247,8.4068044e-05,3.9100702e-05,0.00014084656,0.022159005,0.0,8.4068044e-05,3.90805494981892e-05,0.014967446,1.997963291517376e-05,1.997963291517376e-05,1.2259978674247682e-06,0.092866406,1.2259978674247682e-06,0.0,0.023449478974185,0.023449478974185,0.000192882899477664,0.000192882899477664,0.0,0.0,0.003108897830349375,0.018302566000000003,0.0087044928,0.54073675703456,0.0087044928
0.02960273,0.07959956554996922,0.011572094192903549,0.0894424806698079,0.03795436109139222,0.04303721854498,0.052339134104156665,6.959320561455721e-06,0.0002164070896797204,8.2642175e-05,3.1721742e-05,0.00013288148,0.019653274,0.0,8.2642175e-05,3.170159964548226e-05,0.010860697,1.5115835768777641e-05,1.5115835768777641e-05,1.157954304743424e-06,0.092099555,1.157954304743424e-06,0.0,0.0220694848467806,0.0220694848467806,0.00017126234017413117,0.00017126234017413117,0.0,0.0,0.00292592674432656,0.014801365,0.0087141888,0.5350968852302981,0.0087141888
0.024589760000000002,0.059787274305510556,0.01163946161661506,0.07066105888020391,0.02660739133886975,0.031237713499407998,0.04085374950953375,5.1771079697149995e-06,0.00015580999048667748,8.139573e-05,2.7151671e-05,0.0001266254,0.01743089,0.0,8.139573e-05,2.7130768286080652e-05,0.0081292232,1.207412409241425e-05,1.207412409241425e-05,1.10629282998234e-06,0.091550924,1.10629282998234e-06,0.0,0.020585265779583004,0.020585265779583004,0.000152289103349019,0.000152289103349019,0.0,0.0,0.00276121031751903,0.012294880000000001,0.0087367371,0.525165259131225,0.0087367371
0.021261304,0.047001263727393,0.01165707626594076,0.0580188855085272,0.019537904605318197,0.0237303080081516,0.031933565929682994,3.8843421090606e-06,0.00011284816507466919,8.0297978e-05,2.4214592e-05,0.00012152835,0.015459812,0.0,8.0297978e-05,2.4192720169776002e-05,0.0063177766,1.00566457438624e-05,1.00566457438624e-05,1.065931999896105e-06,0.091177411,1.065931999896105e-06,0.0,0.0190665273923144,0.0190665273923144,0.0001355988814394156,0.0001355988814394156,0.0,0.0,0.002611078286714164,0.010630652,0.0087710563,0.51220449969389,0.0087710563
0.019194068,0.03886139078095764,0.01164329936277504,0.0498222527825468,0.015101110962976602,0.019088759745917998,0.02503858469208285,2.9391418789928497e-06,8.2283328231751e-05,7.9324389e-05,2.2255046e-05,0.00011726461,0.013711623,0.0,7.9324389e-05,2.2232314918566058e-05,0.0051198816,8.6392341550889e-06,8.6392341550889e-06,1.033822285913351e-06,0.090942413,1.033822285913351e-06,0.0,0.0175610336391561,0.0175610336391561,0.0001208837127709893,0.0001208837127709893,0.0,0.0,0.002473099163468084,0.009597034,0.0088161491,0.497173485925505,0.0088161491
0.017974159200000003,0.03365019009006095,0.011617799188575651,0.0446005480964365,0.01223389879320315,0.01624941460306152,0.019730755671277207,2.24482093718337e-06,6.04711495210529e-05,7.8454541e-05,2.090626e-05,0.00011364561,0.012161119,0.0,7.8454541e-05,2.08829104253938e-05,0.004330405,7.5922130593626e-06,7.5922130593626e-06,1.008164627937909e-06,0.090815447,1.008164627937909e-06,0.0,0.0161005566216149,0.0161005566216149,0.00010788282989500109,0.00010788282989500109,0.0,0.0,0.002345285312935603,0.008987079600000001,0.0088711269,0.480794390789871,0.0088711269
0.017278856000000002,0.03031224376858068,0.011603657137165619,0.041376668007855395,0.01031969884811778,0.014513646375239202,0.01565916774660306,1.7332848643565097e-06,4.48663568997369e-05,7.7671597e-05,1.9953648e-05,0.00011055673,0.010785945,0.0,7.7671597e-05,1.9929950648562242e-05,0.0038126044,6.78508296255504e-06,6.78508296255504e-06,9.878471130136878e-07,0.090772226,9.878471130136878e-07,0.0,0.0147054916187355,0.0147054916187355,9.637463616529199e-05,9.637463616529199e-05,0.0,0.0,0.002226361291069179,0.008639428000000001,0.0089352056,0.463611502124397,0.0089352056
0.0168910772,0.02816032202226485,0.011597565665091451,0.03945976519389301,0.00898596216432145,0.013451139230249617,0.012545542216566079,1.35543868206912e-06,3.36709669928096e-05,7.6961987e-05,1.9263525e-05,0.00010790802,0.0095662745,0.0,7.6961987e-05,1.923973319817825e-05,0.0034754914,6.13940119128525e-06,6.13940119128525e-06,9.720034494320701e-07,0.090794012,9.720034494320701e-07,0.0,0.0133882250135733,0.0133882250135733,8.617016429561075e-05,8.617016429561075e-05,0.0,0.0,0.002115191200334327,0.0084455386,0.0090077035,0.446036518715634,0.0090077035
0.0166775584,0.026765765601511678,0.01159254530577612,0.0383948870095566,0.00801334804609152,0.012801211846402242,0.010170979662817919,1.07567013298119e-06,2.56121799229692e-05,7.6314878e-05,1.8750843e-05,0.00010562521,0.0084845237,0.0,7.6314878e-05,1.872716593552704e-05,0.0032585501,5.60668806536256e-06,5.60668806536256e-06,9.59924992736132e-07,0.090866528,9.59924992736132e-07,0.0,0.01215548947963657,0.01215548947963657,7.710759913369203e-05,7.710759913369203e-05,0.0,0.0,0.002010765442199052,0.0083387792,0.0090880292,0.428381375947712,0.0090880292
0.0165608286,0.02587395082327424,0.0115903186228784,0.037904729748384006,0.007275402701709441,0.01240494414160581,0.008364420861220802,8.681337550519759e-07,1.9790784089781227e-05,7.5721691e-05,1.8362884e-05,0.00010365656,0.0075250976,0.0,7.5721691e-05,1.833947572999216e-05,0.0031215288,5.15681088617896e-06,5.15681088617896e-06,9.51118709230536e-07,0.090978988,9.51118709230536e-07,0.0,0.011010038024438399,0.011010038024438399,6.904783562319456e-05,6.904783562319456e-05,0.0,0.0,0.0019125170197022948,0.0082804143,0.0091756731,0.41088188646546,0.0091756731
0.0164972768,0.025314363414221698,0.0115891537640697,0.0377944039834725,0.0066926329970682,0.012164563174598558,0.006992976111037136,7.13862819426768e-07,1.5564585293825042e-05,7.5175652e-05,1.8063874e-05,0.00010195266,0.0066741626,0.0,7.5175652e-05,1.804083930915268e-05,0.0030376702,4.7696524885712795e-06,4.7696524885712795e-06,9.451214059982759e-07,0.091123268,9.451214059982759e-07,0.0,0.009951833841616102,0.009951833841616102,6.187081279069236e-05,6.187081279069236e-05,0.0,0.0,0.0018197099497239033,0.0082486384,0.0092701986,0.39371519482642,0.0092701986
0.0164627448,0.024978503309624638,0.011589511297777919,0.0379367164976544,0.00621628144605216,0.012019584149850122,0.005953851700906503,5.99011536793552e-07,1.2480042999494479e-05,7.4671443e-05,1.7831346e-05,0.00010048154,0.0059194509,0.0,7.4671443e-05,1.780874173761618e-05,0.0029891704,4.4319769470904195e-06,4.4319769470904195e-06,9.416358431535879e-07,0.09129326,9.416358431535879e-07,0.0,0.00897891495404937,0.00897891495404937,5.547254888039897e-05,5.547254888039897e-05,0.0,0.0,0.0017321086695417601,0.0082313724,0.0093712322,0.377012544639661,0.0093712322
0.0164440126,0.0247921173100577,0.01159055114139348,0.0382415056317865,0.00581477673396554,0.01193268571865741,0.005167915697883491,5.133469546359588e-07,1.0211170542519801e-05,7.4204836e-05,1.7648888e-05,9.9208788e-05,0.0052500819,0.0,7.4204836e-05,1.76267368806712e-05,0.0029642007,4.13419871435824e-06,4.13419871435824e-06,9.403461616339644e-07,0.09148439,9.403461616339644e-07,0.0,0.008088016296085949,0.008088016296085949,4.976267186057097e-05,4.976267186057097e-05,0.0,0.0,0.0016491407850182998,0.0082220063,0.0094784563,0.36086930216248997,0.0094784563
0.0164338544,0.0247065637321712,0.01159210400242248,0.038648725173865195,0.005468009641725001,0.01188089365803784,0.00457441282006412,4.4934810214315146e-07,8.52717410579051e-06,7.3772491e-05,1.7505508e-05,9.8109005e-05,0.0046564047,0.0,7.3772491e-05,1.74838081722832e-05,0.0029548891,3.869483133975e-06,3.869483133975e-06,9.410229602556319e-07,0.091693215,9.410229602556319e-07,0.0,0.00727503120190323,0.00727503120190323,4.466240112151008e-05,4.466240112151008e-05,0.0,0.0,0.0015705155428458542,0.0082169272,0.0095916064,0.345352322626875,0.0095916064
0.0164283484,0.02468936861082838,0.01159401809091972,0.0391178255763062,0.00516282489503858,0.01185018908805646,0.004126871672689753,4.0146224231682264e-07,7.26326358753034e-06,7.3371753e-05,1.7393524e-05,9.7161093e-05,0.0041298606,0.0,7.3371753e-05,1.7372256416399482e-05,0.0029560048,3.63273436932868e-06,3.63273436932868e-06,9.4347890713278e-07,0.091917172,9.4347890713278e-07,0.0,0.00653534870375538,0.00653534870375538,4.0102846161876e-05,4.0102846161876e-05,0.0,0.0,0.0014959367297361081,0.0082141742,0.00971046,0.330506065670011,0.00971046
0.016425363800000002,0.024718802031972718,0.01159614831782514,0.039621624040028405,0.00489043951532082,0.01183207405098063,0.0037898356110803995,3.6558491126449e-07,6.302336293288999e-06,7.3000476e-05,1.7307462e-05,9.6348289e-05,0.0036628577,0.0,7.3000476e-05,1.7286596816111278e-05,0.0029640738,3.42003047095818e-06,3.42003047095818e-06,9.475696404652619e-07,0.092154339,9.475696404652619e-07,0.0,0.005864095256535861,0.005864095256535861,3.602360550340874e-05,3.602360550340874e-05,0.0,0.0,0.001425236161500447,0.008212681900000001,0.0098348362,0.316357079902302,0.0098348362
0.016423745400000002,0.024780385988991363,0.0115984049055602,0.04014223795170681,0.004644860326943201,0.01182143501396307,0.0035363265784776002,3.38667683833835e-07,5.5602183205030005e-06,7.2656927e-05,1.7243061e-05,9.5654381e-05,0.0032486632,0.0,7.2656927e-05,1.7222565207972963e-05,0.0029767896,3.2282148429102e-06,3.2282148429102e-06,9.531568605466758e-07,0.092403308,9.531568605466758e-07,0.0,0.00525631854021976,0.00525631854021976,3.237160268368176e-05,3.237160268368176e-05,0.0,0.0,0.00135811925069359,0.008211872700000001,0.0099645918,0.30291798045626,0.0099645918
0.016422869200000002,0.024864457195073943,0.011600742336190321,0.0406680923556534,0.0044218702529114995,0.011815214000636181,0.003345852051635852,3.1845335762774157e-07,4.9773300175191996e-06,7.2339695e-05,1.7197202e-05,9.5066964e-05,0.0028813058,0.0,7.2339695e-05,1.7177039656431163e-05,0.0029926221,3.054747589861e-06,3.054747589861e-06,9.60139450417968e-07,0.09266302,9.60139450417968e-07,0.0,0.00470711379524804,0.00470711379524804,2.9100070633349602e-05,2.9100070633349602e-05,0.0,0.0,0.00129444918270632,0.008211434600000001,0.010099612,0.2901902939309,0.010099612
0.0164223954,0.02496448038768705,0.01160311025561901,0.0411917383608753,0.0042183831339461094,0.011811591115830722,0.003202884909139545,3.032604416159274e-07,4.51053294795175e-06,7.2047595e-05,1.7167371e-05,9.4573974e-05,0.0025554888,0.0,7.2047595e-05,1.714750749338445e-05,0.0030105577,2.89750698896919e-06,2.89750698896919e-06,9.68419903000836e-07,0.092932709,9.68419903000836e-07,0.0,0.00421171310207736,0.00421171310207736,2.6167729991083202e-05,2.6167729991083202e-05,0.0,0.0,0.001233945132008125,0.0082111977,0.010239814,0.278166929974483,0.010239814
0.0164221376,0.02507614920599952,0.011605535636959319,0.0417087427272208,0.004032080429557559,0.01180949005423264,0.00309567308957514,2.918436419442795e-07,4.12971354865785e-06,7.177965e-05,1.7151686e-05,9.4166971e-05,0.002266515,0.0,7.177965e-05,1.713208711144152e-05,0.0030299253,2.7547273144710594e-06,2.7547273144710594e-06,9.77937648045795e-07,0.0932118,9.77937648045795e-07,0.0,0.0037655490369420002,0.0037655490369420002,2.3538086919675004e-05,2.3538086919675004e-05,0.0,0.0,0.001176568580396163,0.0082110688,0.010385145,0.26683420970698796,0.010385145
0.0164219976,0.02519634735283809,0.01160794901953686,0.042216182131951295,0.0038611061612007797,0.011808278429274,0.003015347608734318,2.83269810290211e-07,3.8124396327535196e-06,7.1535018e-05,1.714853e-05,9.3836585e-05,0.0020102183,0.0,7.1535018e-05,1.71291646795269e-05,0.0030502828,2.6248853595397997e-06,2.6248853595397997e-06,9.88621815991865e-07,0.093499891,9.88621815991865e-07,0.0,0.0033642935070286296,0.0033642935070286296,2.11787936047127e-05,2.11787936047127e-05,0.0,0.0,0.001122021054982512,0.0082109988,0.010535569,0.25617343881212595,0.010535569
0.016421923,0.02532309629291471,0.011610387844516089,0.042712707949552196,0.0037039790200790496,0.011807583511864351,0.0029552119996343594,2.768469960454622e-07,3.5432845582616003e-06,7.1312963e-05,1.7156623e-05,9.3576302e-05,0.0017829037,0.0,7.1312963e-05,1.7137462311867373e-05,0.0030713375,2.50667612389535e-06,2.50667612389535e-06,1.00043173078616e-06,0.093796693,1.00043173078616e-06,0.0,0.00300388215267546,0.00300388215267546,1.9061166088996e-05,1.9061166088996e-05,0.0,0.0,0.00107025122306336,0.0082109615,0.01069108,0.24616223168061,0.01069108
0.0164218814,0.025454896845724502,0.01161281839907508,0.0431975208102768,0.00355943562073638,0.011807189035137748,0.0029102258139190253,2.720565089073547e-07,3.31071289451876e-06,7.1112845e-05,1.7174883e-05,9.3379633e-05,0.0015812938,0.0,7.1112845e-05,1.715590046056425e-05,0.0030928981,2.39896172336667e-06,2.39896172336667e-06,1.0133269230094032e-06,0.09410201,1.0133269230094032e-06,0.0,0.00268052449241232,0.00268052449241232,1.71597116978158e-05,1.71597116978158e-05,0.0,0.0,0.0010210692250624959,0.0082109407,0.010851691,0.236775489480936,0.010851691
0.016421859,0.02559084815293398,0.01161528850967877,0.0436706413663716,0.0034264149502804195,0.0118069684775892,0.002876596131113366,2.6851150698221964e-07,3.1066806737637e-06,7.0934097e-05,1.7202363e-05,9.3241324e-05,0.0014024816,0.0,7.0934097e-05,1.7183535701791017e-05,0.0031148391,2.30074139299458e-06,2.30074139299458e-06,1.027280040001292e-06,0.094415702,1.027280040001292e-06,0.0,0.00239070772186688,0.00239070772186688,1.54517470617328e-05,1.54517470617328e-05,0.0,0.0,0.0009744010089966899,0.0082109295,0.011017433,0.227986436419688,0.011017433
0.016421847,0.025730148647975102,0.011617754014034701,0.044132104936292806,0.0033039616169922605,0.0118068498234687,0.002851473262756395,2.659213394394088e-07,2.9250325060120502e-06,7.0776208e-05,1.7238282e-05,9.3156392e-05,0.0012438896,0.0,7.0776208e-05,1.72195879450851e-05,0.0031370788,2.2111359871782603e-06,2.2111359871782603e-06,1.042267156840728e-06,0.094737694,1.042267156840728e-06,0.0,0.00213119386592384,0.00213119386592384,1.3917083401166399e-05,1.3917083401166399e-05,0.0,0.0,0.00093007173223818,0.0082109235,0.011188359,0.219767057144472,0.011188359
0.016421841000000003,0.0258722954623287,0.01162021448193474,0.0445823262368578,0.0031912409302829203,0.011806788854284652,0.00283271752575504,2.64068396237328e-07,2.761427946488224e-06,7.0638715e-05,1.7281955e-05,9.3120645e-05,0.0011032311,0.0,7.0638715e-05,1.726337430608175e-05,0.0031595649,2.1293660147232997e-06,2.1293660147232997e-06,1.058273015566365e-06,0.095067933,1.058273015566365e-06,0.0,0.0018990092338044898,0.0018990092338044898,1.2537710655500698e-05,1.2537710655500698e-05,0.0,0.0,0.000887980211219309,0.008210920500000001,0.011364537,0.212088943528834,0.011364537
0.0164218366,0.0260169625891599,0.011622682326957061,0.045021900366579805,0.0030875068034746404,0.01180676023697586,0.00281872396262886,2.62789127500614e-07,2.6126179950625038e-06,7.0521171e-05,1.7332763e-05,9.3130395e-05,0.00097847823,0.0,7.0521171e-05,1.731427847489865e-05,0.0031822638,2.05473457577164e-06,2.05473457577164e-06,1.075288476580935e-06,0.095406398,1.075288476580935e-06,0.0,0.001691433769920333,0.001691433769920333,1.129756150292619e-05,1.129756150292619e-05,0.0,0.0,0.0008480149816903221,0.0082109183,0.011546053,0.20492349767498802,0.011546053
0.016421835200000002,0.02616392947636988,0.011625168625011499,0.045451513117059396,0.00299208413682906,0.011806751840596081,0.002808290462728412,2.619602405415242e-07,2.476256854161516e-06,7.0423193e-05,1.7390166e-05,9.3182323e-05,0.00086783228,0.0,7.0423193e-05,1.7371763378535477e-05,0.0032051541,1.98661969642626e-06,1.98661969642626e-06,1.09330912758223e-06,0.095753111,1.09330912758223e-06,0.0,0.001505987453321092,0.001505987453321092,1.01822848195628e-05,1.01822848195628e-05,0.0,0.0,0.0008100970662950334,0.008210917600000001,0.01173301,0.198242407336029,0.01173301
0.0164218336,0.02631297336220815,0.01162765075339455,0.045871769672148,0.00290434980944175,0.01180675397461616,0.002800516279695458,2.614886512859772e-07,2.350423131109946e-06,7.0344402e-05,1.7453704e-05,9.3273498e-05,0.00076969818,0.0,7.0344402e-05,1.743536836033688e-05,0.0032282232,1.9244654747996e-06,1.9244654747996e-06,1.112335805330442e-06,0.096108079,1.112335805330442e-06,0.0,0.001340415833782032,0.001340415833782032,9.17905796683722e-06,9.17905796683722e-06,0.0,0.0,0.0007740986516726613,0.0082109168,0.011925529,0.19201785212876,0.011925529
0.0164218336,0.026464011730678683,0.01163014288690113,0.0462834336530101,0.00282374375550745,0.011806763827716319,0.002794727859244956,2.613038415183567e-07,2.233748359078011e-06,7.0284448e-05,1.752294e-05,9.3401301e-05,0.00068266108,0.0,7.0284448e-05,1.7504657966239202e-05,0.0032514636,1.8677692984530002e-06,1.8677692984530002e-06,1.132373275788342e-06,0.096471347,1.132373275788342e-06,0.0,0.001192673827828708,0.001192673827828708,8.27640680736136e-06,8.27640680736136e-06,0.0,0.0,0.0007399379751715449,0.0082109168,0.012123742,0.186222779354245,0.012123742
0.0164218336,0.02661695929706066,0.011632636793642919,0.04668718476331141,0.0027497469478197398,0.01180677778627488,0.0027904214788462348,2.613522141559485e-07,2.12513105894544e-06,7.0243004e-05,1.7597502e-05,9.3563409e-05,0.00060546602,0.0,7.0243004e-05,1.7579263772952183e-05,0.0032748713,1.81607997987702e-06,1.81607997987702e-06,1.1534311805970181e-06,0.09684296,1.1534311805970181e-06,0.0,0.0010609103355770219,0.0010609103355770219,7.46406521228804e-06,7.46406521228804e-06,0.0,0.0,0.0007075240888468704,0.0082109168,0.012327802,0.180830987263311,0.012327802
0.0164218336,0.026771726105129432,0.01163511112444668,0.047083649168520904,0.0026818785991334702,0.0118067933870168,0.002787220154597433,2.61592907601175e-07,2.023685316829456e-06,7.021975e-05,1.7677065e-05,9.375775e-05,0.00053700019,0.0,7.021975e-05,1.765885921398585e-05,0.0032984444,1.7689900316896503e-06,1.7689900316896503e-06,1.17552294978125e-06,0.097222969,1.17552294978125e-06,0.0,0.0009434538617103731,0.0009434538617103731,6.732841257196251e-06,6.732841257196251e-06,0.0,0.0,0.000676766693174656,0.0082109168,0.012537875,0.175817238269387,0.012537875
0.0164218336,0.026928504770869,0.011637660819723,0.047473881077940004,0.0026197213812213,0.01180681062994208,0.002784843306601759,2.619945113218907e-07,1.92879229115595e-06,7.0214395e-05,1.7761247e-05,9.3982417e-05,0.00047627644,0.0,7.0214395e-05,1.774306463383363e-05,0.0033221825,1.726122047442051e-06,1.726122047442051e-06,1.198665185903631e-06,0.097611435,1.198665185903631e-06,0.0,0.000838796824198776,0.000838796824198776,6.0744978232909205e-06,6.0744978232909205e-06,0.0,0.0,0.0006476132450810551,0.0082109168,0.012754143,0.17115741732050818,0.012754143
0.0164218336,0.02708704707208675,0.01164017117655995,0.0478580986820754,0.002562845823533055,0.01180682869395904,0.0027830810335838997,2.625330857603676e-07,1.8397818035619118e-06,7.0226655e-05,1.7849863e-05,9.4235809e-05,0.00042241931,0.0,7.0226655e-05,1.7831696301931748e-05,0.0033460862,1.6871491481627547e-06,1.6871491481627547e-06,1.222879905881863e-06,0.098008424,1.222879905881863e-06,0.0,0.000745581825406818,0.000745581825406818,5.48165385894317e-06,5.48165385894317e-06,0.0,0.0,0.000619956656953872,0.0082109168,0.012976807,0.16682845965000298,0.012976807
0.0164218336,0.02724741486353346,0.0116426646422633,0.0482370312487668,0.0025108834706689103,0.011806847579067678,0.002781776606625759,2.631899249795687e-07,1.7561919167528979e-06,7.0256261e-05,1.7942639e-05,9.4516421e-05,0.0003746523,0.0,7.0256261e-05,1.792448051105283e-05,0.0033701567,1.651763371348805e-06,1.651763371348805e-06,1.248191511556101e-06,0.098414019,1.248191511556101e-06,0.0,0.0006625885527379799,0.0006625885527379799,4.9476886206362995e-06,4.9476886206362995e-06,0.0,0.0,0.0005937319402877167,0.0082109168,0.013206081,0.162808485828087,0.013206081
0.0164218336,0.027409838751298078,0.01164523223192274,0.048611653369349396,0.0024635076407049238,0.01180686564308464,0.002780813447074152,2.639503922426427e-07,1.677665029266639e-06,7.0302965e-05,1.8039287e-05,9.4822877e-05,0.00033228676,0.0,7.0302965e-05,1.802113081842024e-05,0.0033943956,1.6196809426038219e-06,1.6196809426038219e-06,1.274627792740769e-06,0.098828293,1.274627792740769e-06,0.0,0.000588721125376436,0.000588721125376436,4.46666408841172e-06,4.46666408841172e-06,0.0,0.0,0.0005688892139127603,0.0082109168,0.013442197,0.15907674176278658,0.013442197
0.0164218336,0.0275741306649173,0.011647777563304101,0.0489821666937655,0.002420378706366845,0.011806885349284958,0.0027801041258894463,2.648032410073605e-07,1.603777954498014e-06,7.0366521e-05,1.8139663e-05,9.5154035e-05,0.00029471191,0.0,7.0366521e-05,1.812150193219766e-05,0.0034188044,1.590653860934999e-06,1.590653860934999e-06,1.30222160151321e-06,0.09925133,1.30222160151321e-06,0.0,0.000522996551208157,0.000522996551208157,4.03325214138546e-06,4.03325214138546e-06,0.0,0.0,0.0005453412342876932,0.0082109168,0.013685406,0.1556136206268371,0.013685406
0.0164218336,0.02774038131183238,0.0116503219248306,0.049349204409390994,0.002381205641359898,0.01180690505548528,0.002779584101944753,2.657394464825483e-07,1.534247082938378e-06,7.0446702e-05,1.8243574e-05,9.5508811e-05,0.00026138601,0.0,7.0446702e-05,1.8225403582731744e-05,0.0034433848,1.564449793945354e-06,1.564449793945354e-06,1.331008784410969e-06,0.09968321,1.331008784410969e-06,0.0,0.000464533779348945,0.000464533779348945,3.64266994625379e-06,3.64266994625379e-06,0.0,0.0,0.0005230366299912433,0.0082109168,0.013935979,0.1524005970171095,0.013935979
0.0164218336,0.02790863438723419,0.01165286666335112,0.0497133082276775,0.002345714957249819,0.011806924761685598,0.002779204703874016,2.667519099793856e-07,1.4687840869848961e-06,7.0543283e-05,1.8350844e-05,9.5886266e-05,0.0002318286,0.0,7.0543283e-05,1.833265849710444e-05,0.0034681386,1.5408561610768441e-06,1.5408561610768441e-06,1.3610288368572e-06,0.10012402,1.3610288368572e-06,0.0,0.0004125442098435,0.0004125442098435,3.2906215141200002e-06,3.2906215141200002e-06,0.0,0.0,0.0005019137915500866,0.0082109168,0.0141942,0.1494202777757725,0.0141942
0.0164218336,0.02807896169319696,0.01165542227732844,0.0500750141696532,0.00231365499975792,0.01180694364679424,0.0027789304588592676,2.678348991040422e-07,1.407144126271051e-06,7.065606e-05,1.8461313e-05,9.6285534e-05,0.00020561351,0.0,7.065606e-05,1.8443109406929482e-05,0.0034930683,1.51967842531596e-06,1.51967842531596e-06,1.39232541014292e-06,0.10057388,1.39232541014292e-06,0.0,0.000366322201413007,0.000366322201413007,2.9732494877338e-06,2.9732494877338e-06,0.0,0.0,0.00048191932649781493,0.0082109168,0.01446038,0.146656293878444,0.01446038
0.0164218336,0.02825138753123601,0.01165797836197557,0.0504347577485529,0.00228478940223129,0.01180696499517792,0.002778734433016974,2.689838849968974e-07,1.349095918046058e-06,7.0784838e-05,1.8574843e-05,9.6705873e-05,0.00018236283,0.0,7.0784838e-05,1.8556616063809392e-05,0.0035181749,1.5007390230653101e-06,1.5007390230653101e-06,1.424946339362304e-06,0.10103287,1.424946339362304e-06,0.0,0.00032523712280861097,0.00032523712280861097,2.68708858089984e-06,2.68708858089984e-06,0.0,0.0,0.0004629992200167243,0.0082109168,0.014734848,0.144093307778289,0.014734848
0.0164218336,0.02842590226547016,0.01166050812386295,0.0507928765643541,0.002258895660722811,0.011806985522469919,0.002778596281562656,2.7019506266702675e-07,1.2944258504036398e-06,7.0929433e-05,1.8691324e-05,9.7146607e-05,0.00016174131,0.0,7.0929433e-05,1.867307080063456e-05,0.003543461,1.4838761566826762e-06,1.4838761566826762e-06,1.458943469475292e-06,0.1015011,1.458943469475292e-06,0.0,0.000288725528496039,0.000288725528496039,2.42902387696236e-06,2.42902387696236e-06,0.0,0.0,0.000445101611795091,0.0082109168,0.015017956,0.1417169573455431,0.015017956
0.0164218336,0.02860281759078996,0.0116631237245922,0.051150254548192796,0.002235792929323464,0.011807006049761919,0.002778501819145641,2.71465595103231e-07,1.2429707261825431e-06,7.1089664e-05,1.8810584e-05,9.760719e-05,0.00014345166,0.0,7.1089664e-05,1.879230180530456e-05,0.003568928,1.468935546949104e-06,1.468935546949104e-06,1.49437398508239e-06,0.10197867,1.49437398508239e-06,0.0,0.000256284452573292,0.000256284452573292,2.1962565341844598e-06,2.1962565341844598e-06,0.0,0.0,0.0004281885113237418,0.0082109168,0.015310081,0.1395137922779172,0.015310081
0.0164218336,0.028781903001795263,0.011665703412165019,0.0515067949610201,0.002215272064831748,0.0118070273981456,0.0027784394905573384,2.7279285815022393e-07,1.194522853047309e-06,7.1265371e-05,1.8932571e-05,9.8087061e-05,0.0001272302,0.0,7.1265371e-05,1.891425600946602e-05,0.0035945778,1.4557836207783962e-06,1.4557836207783962e-06,1.531298217510003e-06,0.10246572,1.531298217510003e-06,0.0,0.00022746516691573998,0.00022746516691573998,1.9862699166146e-06,1.9862699166146e-06,0.0,0.0,0.0004122040623454872,0.0082109168,0.015611623,0.1374712636387012,0.015611623
0.0164218336,0.028963252854854054,0.01166826139569381,0.051862930653740605,0.0021971635173992808,0.011807049567620959,0.0027784014378922804,2.7417487329809283e-07,1.1489278379631842e-06,7.1456394e-05,1.9057188e-05,9.8585784e-05,0.00011284307,0.0,7.1456394e-05,1.9038838786534204e-05,0.0036204124,1.444293643571484e-06,1.444293643571484e-06,1.569782818832976e-06,0.10296235,1.569782818832976e-06,0.0,0.000201867427901926,0.000201867427901926,1.79680178341298e-06,1.79680178341298e-06,0.0,0.0,0.000397108595315814,0.0082109168,0.015923014,0.1355776300567774,0.015923014
0.0164218336,0.02914703051970908,0.01167084590054637,0.0522192346609604,0.002181315848533604,0.01180707009491296,0.002778381333505008,2.756100893635404e-07,1.106042641812108e-06,7.1662602e-05,1.9184323e-05,9.9103003e-05,0.00010008282,0.0,7.1662602e-05,1.9165935977463883e-05,0.0036464336,1.434347141172844e-06,1.434347141172844e-06,1.609899444761127e-06,0.10346869,1.609899444761127e-06,0.0,0.000179134516437096,0.000179134516437096,1.6258162867993799e-06,1.6258162867993799e-06,0.0,0.0,0.00038286451127714786,0.0082109168,0.016244709,0.1338220061386384,0.016244709
0.0164218336,0.029333221502881007,0.011673424041911169,0.052575903272327605,0.002167575350762734,0.01180709226438832,0.002778374715952563,2.770970813184672e-07,1.065720093242994e-06,7.1883856e-05,1.9313909e-05,9.9638368e-05,8.8765497e-05,0.0,7.1883856e-05,1.929548295139673e-05,0.0036726429,1.4258377049517819e-06,1.4258377049517819e-06,1.651725452924704e-06,0.10398488,1.651725452924704e-06,0.0,0.0001589485763146284,0.0001589485763146284,1.471483663164891e-06,1.471483663164891e-06,0.0,0.0,0.0003694313677282286,0.0082109168,0.016577203,0.1321941898143656,0.016577203
0.0164218336,0.02952196592845928,0.011676031743200109,0.052933419063143694,0.00215581084118369,0.01180711443386368,0.002778378221591176,2.78634940159038e-07,1.027835421336578e-06,7.2120027e-05,1.9445864e-05,0.00010019166,7.8727928e-05,0.0,7.2120027e-05,1.942739665187648e-05,0.0036990421,1.4186654242330402e-06,1.4186654242330402e-06,1.6953445817349001e-06,0.10451104,1.6953445817349001e-06,0.0,0.00014102654196369838,0.00014102654196369838,1.33215645060692e-06,1.33215645060692e-06,0.0,0.0,0.0003567750690264584,0.0082109168,0.016921015,0.130684709098533,0.016921015
0.0164218336,0.02971316867199628,0.01167860248367324,0.053291806718520796,0.002145884379230504,0.011807137424430719,0.002778389419875928,2.80222589011472e-07,9.922575203148638e-07,7.2371018e-05,1.9580144e-05,0.00010076258,6.9825408e-05,0.0,7.2371018e-05,1.956163430247248e-05,0.0037256333,1.412740793325664e-06,1.412740793325664e-06,1.7408458735118e-06,0.10504735,1.7408458735118e-06,0.0,0.0001251163919882496,0.0001251163919882496,1.20635332464768e-06,1.20635332464768e-06,0.0,0.0,0.0003448582752301698,0.0082109168,0.01727671,0.12928476021961718,0.01727671
0.0164218336,0.029907129685288004,0.011681238113801,0.05365179587505,0.0021376958482561,0.01180715959390608,0.0027784062458337685,2.81859826201096e-07,9.58885348213771e-07,7.2636714e-05,1.9716656e-05,0.00010135112,6.1929575e-05,0.0,7.2636714e-05,1.9698101838037762e-05,0.0037524179,1.4079769928042718e-06,1.4079769928042718e-06,1.7883289583723198e-06,0.10559393,1.7883289583723198e-06,0.0,0.0001109938071951375,0.0001109938071951375,1.09274029090345e-06,1.09274029090345e-06,0.0,0.0,0.0003336531294528796,0.0082109168,0.017644886,0.1279861419278145,0.017644886
0.0164218336,0.030103657957663,0.01168383297428948,0.0540132160094168,0.0021311181739434,0.01180718258447312,0.00277842746771195,2.835457407982e-07,9.27600158204498e-07,7.2917035e-05,1.9855377e-05,0.000101957,5.4926604e-05,0.0,7.2917035e-05,1.983677747559525e-05,0.0037793973,1.40429834308395e-06,1.40429834308395e-06,1.837895642088e-06,0.10615096,1.837895642088e-06,0.0,9.84592442515608e-05,9.84592442515608e-05,9.901170701991361e-07,9.901170701991361e-07,0.0,0.0,0.0003231247633551458,0.0082109168,0.018026184,0.12678124010126998,0.018026184
0.0164218336,0.030302885399086717,0.0116864140102752,0.054376459246927994,0.0021260565177718717,0.011807205575040159,0.002778452186406316,2.8528019334108e-07,8.98308144457584e-07,7.3211901e-05,1.9996258e-05,0.0001025802,4.8715527e-05,0.0,7.3211901e-05,1.997761228926532e-05,0.0038065736,1.4016332853369819e-06,1.4016332853369819e-06,1.8896604330995999e-06,0.10671861,1.8896604330995999e-06,0.0,8.733517511122949e-05,8.733517511122949e-05,8.974032400940459e-07,8.974032400940459e-07,0.0,0.0,0.000313246209474816,0.0082109168,0.018421298,0.1256630108578715,0.018421298
0.0164218336,0.030505005170504803,0.011689037414333551,0.05474201291669999,0.0021224266717705803,0.01180723020779056,0.0027784795306078722,2.87063292814032e-07,8.70920420832784e-07,7.3521238e-05,2.0139232e-05,0.00010322079,4.3206794e-05,0.0,7.3521238e-05,2.012053957042688e-05,0.0038339484,1.399913541925248e-06,1.399913541925248e-06,1.94374718698314e-06,0.10729705,1.94374718698314e-06,0.0,7.746373269083999e-05,7.746373269083999e-05,8.13625668783004e-07,8.13625668783004e-07,0.0,0.0,0.000303991681288862,0.0082109168,0.018830966,0.12462486120504,0.018830966
0.0164218336,0.03070985900036213,0.01169161187780475,0.055109730077763104,0.002120127950626774,0.011807254840540961,0.002778508678418674,2.88894537717302e-07,8.453437326645379e-07,7.3844989e-05,2.0284289e-05,0.00010387861,3.8320988e-05,0.0,7.3844989e-05,2.026554773686423e-05,0.0038615232,1.3990801517903541e-06,1.3990801517903541e-06,2.00028505985946e-06,0.10788648,2.00028505985946e-06,0.0,6.87045842444492e-05,6.87045842444492e-05,7.37908408434168e-07,7.37908408434168e-07,0.0,0.0,0.0002953331862983029,0.0082109168,0.019255986,0.1236607352080474,0.019255986
0.0164218336,0.030917834691568804,0.0116942679437736,0.055480426629912004,0.002119102981523544,0.01180727947329136,0.00277853952481319,2.90774902726146e-07,8.21507580550729e-07,7.4183117e-05,2.043136e-05,0.00010455402,3.3987664e-05,0.0,7.4183117e-05,2.0412569278208e-05,0.0038892999,1.39907392770304e-06,1.39907392770304e-06,2.0594224882842e-06,0.10848709,2.0594224882842e-06,0.0,6.0932982056208e-05,6.0932982056208e-05,6.6946215521744e-07,6.6946215521744e-07,0.0,0.0,0.00028725023349697974,0.0082109168,0.01969721,0.12276498188883299,0.01969721
0.0164218336,0.03112869450163754,0.011696884191320379,0.0558537780943394,0.002119257823053164,0.01180730328495008,0.002778571770087634,2.92703915740108e-07,7.993281587483899e-07,7.4535579e-05,2.0580441e-05,0.00010524686,3.0144354e-05,0.0,7.4535579e-05,2.0561600223677728e-05,0.0039172797,1.399844510865318e-06,1.399844510865318e-06,2.12130982252904e-06,0.10909911,2.12130982252904e-06,0.0,5.40380742309282e-05,5.40380742309282e-05,6.07576456285656e-07,6.07576456285656e-07,0.0,0.0,0.000279717165197515,0.0082109168,0.020155564,0.1219323669227734,0.020155564
0.0164218336,0.031342599204562886,0.011699494697542083,0.056230177632241606,0.0021205308846277923,0.01180732791770048,0.00277860488176598,2.9468214623304004e-07,7.7874014009057e-07,7.4902367e-05,2.0731502e-05,0.00010595736,2.6735643e-05,0.0,7.4902367e-05,2.0712611870007637e-05,0.0039454643,1.401343037474226e-06,1.401343037474226e-06,2.1861162778996796e-06,0.10972274,2.1861162778996796e-06,0.0,4.79213648742807e-05,4.79213648742807e-05,5.51610802330434e-07,5.51610802330434e-07,0.0,0.0,0.0002727144896673414,0.0082109168,0.020632038,0.12115803960465871,0.020632038
0.0164218336,0.03155955539426424,0.011702078554514921,0.0566097226408436,0.0021228564413779518,0.011807354192634237,0.002778638953570578,2.96710028856958e-07,7.59677796793077e-07,7.5283453e-05,2.0884521e-05,0.00010668566,2.3712388e-05,0.0,7.5283453e-05,2.086557999252426e-05,0.0039738556,1.403525187121848e-06,1.403525187121848e-06,2.25402347226728e-06,0.11035823,2.25402347226728e-06,0.0,4.24953475617692e-05,4.24953475617692e-05,5.00988409646704e-07,5.00988409646704e-07,0.0,0.0,0.0002662220918727702,0.0082109168,0.021127708,0.1204375146497992,0.021127708
0.0164218336,0.03177970722027909,0.011704665547369802,0.05699275741180261,0.002126181767742981,0.011807379646476318,0.002778673797030276,2.9878834152002e-07,7.42082963934816e-07,7.5678858e-05,2.103947e-05,0.00010743205,2.1031001e-05,0.0,7.5678858e-05,2.10204774600363e-05,0.0040024547,1.40634888845867e-06,1.40634888845867e-06,2.3252307132747e-06,0.11100584,2.3252307132747e-06,0.0,3.76823086603506e-05,3.76823086603506e-05,4.55189391397734e-07,4.55189391397734e-07,0.0,0.0,0.0002602222323449616,0.0082109168,0.021643734,0.11976663217776662,0.021643734
0.0164218336,0.03200320082942682,0.01170728376060523,0.0573796047022275,0.002130459063410041,0.011807406742501761,0.0027787092071984818,3.00918212095905e-07,7.259019924231179e-07,7.6088589e-05,2.1196327e-05,0.00010819695,1.8652823e-05,0.0,7.6088589e-05,2.1177283795896662e-05,0.0040312633,1.4097757421779327e-06,1.4097757421779327e-06,2.39995690541235e-06,0.11166582,2.39995690541235e-06,0.0,3.3413221528417504e-05,3.3413221528417504e-05,4.13745224465979e-07,4.13745224465979e-07,0.0,0.0,0.0002546984755301756,0.0082109168,0.022181373,0.11914153838622749,0.022181373
0.0164218336,0.03222993352240599,0.011709867743212941,0.0577701537163429,0.002135628139689674,0.011807433017435521,0.0027787451500685006,3.03099953624766e-07,7.110817272305079e-07,7.6512682e-05,2.1355087e-05,0.00010898046,1.654357e-05,0.0,7.6512682e-05,2.133599149475547e-05,0.0040602833,1.4137709527915218e-06,1.4137709527915218e-06,2.47843231355448e-06,0.11233846,2.47843231355448e-06,0.0,2.9626805835307e-05,2.9626805835307e-05,3.7623367041716e-07,3.7623367041716e-07,0.0,0.0,0.00024963425565174916,0.0082109168,0.022741988,0.1185586668703106,0.022741988
0.0164218336,0.0324601899481302,0.01171249768682386,0.058164963153232996,0.00214165772435003,0.01180746011346096,0.00277878175957368,3.0533543840116796e-07,6.97580145540096e-07,7.6951183e-05,2.1515725e-05,0.00010978326,1.467283e-05,0.0,7.6951183e-05,2.14965781563225e-05,0.0040895157,1.418300777942125e-06,1.418300777942125e-06,2.5609209125821195e-06,0.11302407,2.5609209125821195e-06,0.0,2.6268642829945e-05,2.6268642829945e-05,3.4227401512546e-07,3.4227401512546e-07,0.0,0.0,0.00024501670885402883,0.0082109168,0.023327062,0.1180146998157475,0.023327062
0.0164218336,0.03269390532067071,0.011715121429327739,0.058563977432598904,0.002148498208383885,0.011807487209486399,0.002778818602059627,3.07625381131459e-07,6.85352332857581e-07,7.7404155e-05,2.1678239e-05,0.00011060561,1.3013632e-05,0.0,7.7404155e-05,2.165903923406487e-05,0.0041189622,1.423335833797845e-06,1.423335833797845e-06,2.6476995451188303e-06,0.11372297,2.6476995451188303e-06,0.0,2.32904282181504e-05,2.32904282181504e-05,3.11522964583296e-07,3.11522964583296e-07,0.0,0.0,0.0002408317157629398,0.0082109168,0.023938203,0.11750662025951851,0.023938203
0.0164218336,0.03293102597781588,0.011717688695680078,0.058967125087572,0.002156102620224384,0.01180751512660352,0.002778856238920588,3.0997061314328e-07,6.74359845778944e-07,7.7871664e-05,2.184263e-05,0.0001114478,1.1542056e-05,0.0,7.7871664e-05,2.18233785611969e-05,0.0041486239,1.4288483975459198e-06,1.4288483975459198e-06,2.7390716381737997e-06,0.1144355,2.7390716381737997e-06,0.0,2.0649280660632e-05,2.0649280660632e-05,2.83671084003576e-07,2.83671084003576e-07,0.0,0.0,0.0002370672233474688,0.0082109168,0.024577171,0.117031554308448,0.024577171
0.0164218336,0.03317180713094684,0.01172026820452029,0.0593749076812843,0.0021644484121631433,0.01180754386481232,0.002778893948101528,3.12373389834044e-07,6.64571607902662e-07,7.8353813e-05,2.200888e-05,0.00011231066,1.0236886e-05,0.0,7.8353813e-05,2.1989576451529603e-05,0.0041785031,1.4348119065919202e-06,1.4348119065919202e-06,2.8353817820127802e-06,0.11516203,2.8353817820127802e-06,0.0,1.83071442912974e-05,1.83071442912974e-05,2.58439226240338e-07,2.58439226240338e-07,0.0,0.0,0.000233713668593089,0.0082109168,0.025245883,0.11658690330831811,0.025245883
0.0164218336,0.033416309102055,0.011722854777645,0.059787460086750004,0.0021735026412,0.01180757178192944,0.002778932157067437,3.14835343715172e-07,6.55957762972596e-07,7.8850717e-05,2.217699e-05,0.00011319476,9.0793028e-06,0.0,7.8850717e-05,2.21576341448979e-05,0.0042086006,1.441202742936e-06,1.441202742936e-06,2.93700059587536e-06,0.11590295,2.93700059587536e-06,0.0,1.62302388593538e-05,1.62302388593538e-05,2.355755490248208e-07,2.355755490248208e-07,0.0,0.0,0.00023076161747392682,0.0082109168,0.025946436,0.11617024102439999,0.025946436
0.0164218336,0.03366458491637976,0.011725437854753941,0.0602048951892582,0.0021832342623882717,0.01180760134122992,0.00277897103270794,3.1735839694533497e-07,6.484926396449251e-07,7.93625e-05,2.2346956e-05,0.00011410079,8.0526188e-06,0.0,7.93625e-05,2.232754900953136e-05,0.004238918,1.4479985454697919e-06,1.4479985454697919e-06,3.04433869569744e-06,0.1166587,3.04433869569744e-06,0.0,1.438859401366796e-05,1.438859401366796e-05,2.1485301735895682e-07,2.1485301735895682e-07,0.0,0.0,0.00022820304220713,0.0082109168,0.026681136,0.11577931341583439,0.026681136
0.0164218336,0.0339166995347189,0.011728013589358299,0.0606273553395382,0.002193616581141902,0.011807630079438719,0.0027790099415239754,3.1994454856998004e-07,6.42154697506385e-07,7.9889309e-05,2.2518781e-05,0.00011502948,7.1420322e-06,0.0,7.9889309e-05,2.249932139539885e-05,0.004269457,1.455179458923043e-06,1.455179458923043e-06,3.15784818005376e-06,0.11742971,3.15784818005376e-06,0.0,1.275561451555206e-05,1.275561451555206e-05,1.960667246748864e-07,1.960667246748864e-07,0.0,0.0,0.0002260312428807832,0.0082109168,0.027452512,0.11541207797858691,0.027452512
0.0164218336,0.0341727509845516,0.011730585694394521,0.061055011012412806,0.002204625547405544,0.011807661280922558,0.00277904921728614,3.2259619302078296e-07,6.36927001228632e-07,8.0431324e-05,2.2692466e-05,0.00011598169,6.3344141e-06,0.0,8.0431324e-05,2.2672955017733202e-05,0.0043002181,1.4627261319952879e-06,1.4627261319952879e-06,3.2780305181530497e-06,0.11821648,3.2780305181530497e-06,0.0,1.130769943325456e-05,1.130769943325456e-05,1.7903173108116449e-07,1.7903173108116449e-07,0.0,0.0,0.0002242409618419016,0.0082109168,0.028263345,0.1150665605540288,0.028263345
0.0164218336,0.034432792248562154,0.01173314677278096,0.061487973464057606,0.0022162379328956655,0.011807691661314719,0.0027790889928572204,3.25315899011772e-07,6.327962438315921e-07,8.0988742e-05,2.2868016e-05,0.00011695833,5.6181211e-06,0.0,8.0988742e-05,2.28484535557128e-05,0.0043312036,1.47062164208568e-06,1.47062164208568e-06,3.40544247844428e-06,0.11901955,3.40544247844428e-06,0.0,1.0023914589576321e-05,1.0023914589576321e-05,1.6358123652230762e-07,1.6358123652230762e-07,0.0,0.0,0.0002228280775200636,0.0082109168,0.029116716,0.11474102540297601,0.029116716
0.0164218336,0.03469694162566827,0.011735707494564691,0.061926445965863705,0.002228435636405862,0.011807722041706879,0.002779129096228924,3.28106650462272e-07,6.297542329746521e-07,8.1561775e-05,2.3045437e-05,0.00011796048,4.9828263e-06,0.0,8.1561775e-05,2.3025823259023667e-05,0.0043624146,1.4788497978171018e-06,1.4788497978171018e-06,3.54070459873152e-06,0.11983946,3.54070459873152e-06,0.0,8.88568529167323e-06,8.88568529167323e-06,1.495646338086312e-07,1.495646338086312e-07,0.0,0.0,0.00022179022782372622,0.0082109168,0.030016024,0.11443379424915659,0.030016024
0.0164218336,0.034965231449703385,0.01173825060728866,0.0623704799517839,0.002241197392970293,0.011807754064282399,0.002779169571690848,3.30971494177904e-07,6.27796072007824e-07,8.2150669e-05,2.3224737e-05,0.00011898923,4.4193703e-06,0.0,8.2150669e-05,2.320507168619262e-05,0.0043938519,1.487396022005307e-06,1.487396022005307e-06,3.6845066234868902e-06,0.12067685,3.6845066234868902e-06,0.0,7.87653452724359e-06,7.87653452724359e-06,1.368459913724229e-07,1.368459913724229e-07,0.0,0.0,0.00022112601931425,0.0082109168,0.030965043,0.1141433460081083,0.030965043
0.0164218336,0.03523780799635437,0.011740797639116278,0.0628203281377806,0.002254510656926694,0.011807786086857919,0.002779210247231374,3.33914276009798e-07,6.26923723107546e-07,8.2755716e-05,2.3405924e-05,0.00012004597,3.9196298e-06,0.0,8.2755716e-05,2.3386207083681643e-05,0.0044255173,1.4962466763173683e-06,1.4962466763173683e-06,3.83762704799463e-06,0.12153239,3.83762704799463e-06,0.0,6.98184763658364e-06,6.98184763658364e-06,1.253026431341742e-07,1.253026431341742e-07,0.0,0.0,0.000220836409136946,0.0082109168,0.031967979,0.11386827050426761,0.031967979
0.0164218336,0.035514665460951014,0.011743315411072429,0.0632759508690371,0.0022683545894252037,0.01180781893052512,0.0027792515894966502,3.36938345415925e-07,6.2714065293015e-07,8.3377214e-05,2.3589011e-05,0.00012113189,3.4763998e-06,0.0,8.3377214e-05,2.356924388056222e-05,0.0044574114,1.5053894449474439e-06,1.5053894449474439e-06,4.000927577733351e-06,0.12240679,4.000927577733351e-06,0.0,6.1886594604015805e-06,6.1886594604015805e-06,1.1482379934009701e-07,1.1482379934009701e-07,0.0,0.0,0.0002209227414735048,0.0082109168,0.033029515,0.11360723844330839,0.033029515
0.0164218336,0.03579603360703772,0.01174585494532798,0.0637377387098296,0.002282725091984563,0.011807851774192319,0.002779293231768517,3.40049189714743e-07,6.28461676578765e-07,8.4015504e-05,2.377401e-05,0.00012224897,3.0832898e-06,0.0,8.4015504e-05,2.3754192698484302e-05,0.0044895364,1.51481285071779e-06,1.51481285071779e-06,4.17540085645712e-06,0.12330085,4.17540085645712e-06,0.0,5.48547101665264e-06,5.48547101665264e-06,1.053094424568608e-07,1.053094424568608e-07,0.0,0.0,0.00022139026797906,0.0082109168,0.034154896,0.1133590292639272,0.034154896
0.0164218336,0.0360817626186822,0.0117483314894673,0.06420539452554151,0.0022975954220974654,0.01180788461785952,0.0027793349742167763,3.43249792153206e-07,6.30897354361812e-07,8.4670981e-05,2.3960938e-05,0.00012339829,2.7346327e-06,0.0,8.4670981e-05,2.394107054864792e-05,0.0045218924,1.5245068450232743e-06,1.5245068450232743e-06,4.36213127907606e-06,0.12421543,4.36213127907606e-06,0.0,4.86208478347801e-06,4.86208478347801e-06,9.66693042298578e-08,9.66693042298578e-08,0.0,0.0,0.0002222426374457948,0.0082109168,0.035350014,0.11312252444251993,0.035350014
0.0164218336,0.036372307178332494,0.0117508763410713,0.064679689065864,0.0023129781661433697,0.011807919103710079,0.0027793770166777997,3.4654872057590395e-07,6.3448167619144e-07,8.5344058e-05,2.4149809e-05,0.00012458292,2.4254014e-06,0.0,8.5344058e-05,2.4129891445027248e-05,0.0045544808,1.534461693345801e-06,1.534461693345801e-06,4.562414276860439e-06,0.1251515,4.562414276860439e-06,0.0,4.30945514784112e-06,4.30945514784112e-06,8.88218543479098e-08,8.88218543479098e-08,0.0,0.0,0.00022349160167600503,0.0082109168,0.036621507,0.1128966595266312,0.036621507
0.0164218336,0.03666742854577878,0.01175337394176435,0.06516014326455329,0.002328842948903241,0.01180795358956064,0.00277941955899149,3.4994953712719496e-07,6.39235143785075e-07,8.6035216e-05,2.4340643e-05,0.00012580413,2.151138e-06,0.0,8.6035216e-05,2.432067539692138e-05,0.0045873029,1.544668815266711e-06,1.544668815266711e-06,4.77764734208136e-06,0.12611008,4.77764734208136e-06,0.0,3.819560847913799e-06,3.819560847913799e-06,8.1693492480336e-08,8.1693492480336e-08,0.0,0.0,0.00022514401833293848,0.0082109168,0.037976872,0.1126804293072477,0.037976872
0.0164218336,0.03696728365348697,0.011755847257027718,0.0656469843331911,0.002345185665433359,0.011807988896502879,0.0027794625012460537,3.53459494578866e-07,6.45198805258436e-07,8.6744993e-05,2.4533465e-05,0.00012706453,1.9078884e-06,0.0,8.6744993e-05,2.451344740990255e-05,0.0046203593,1.555120630850985e-06,1.555120630850985e-06,5.00947271669655e-06,0.12709232,5.00947271669655e-06,0.0,3.38528868376644e-06,3.38528868376644e-06,7.5217803790734e-08,7.5217803790734e-08,0.0,0.0,0.0002272138440998052,0.0082109168,0.039424635,0.11247291071812891,0.039424635
0.0164218336,0.03727200469673996,0.011758310530435261,0.06614038972279981,0.0023620018115102902,0.011808024203445119,0.0027795059104337282,3.57086847053088e-07,6.52420581753312e-07,8.7473956e-05,2.4728295e-05,0.00012836709,1.6921451e-06,0.0,8.7473956e-05,2.47082289777393e-05,0.0046536513,1.565810105452575e-06,1.565810105452575e-06,5.25977758593918e-06,0.12809949,5.25977758593918e-06,0.0,3.00033012415077e-06,3.00033012415077e-06,6.93348027842402e-08,6.93348027842402e-08,0.0,0.0,0.00022971732606834092,0.0082109168,0.040974502,0.1122732670232295,0.040974502
0.0164218336,0.037581614260418554,0.011760741780529351,0.0666403375394526,0.002379280915915059,0.01180806115257072,0.0027795493528294797,3.60839681693568e-07,6.60955100524488e-07,8.8222776e-05,2.4925161e-05,0.00012971472,1.5007981e-06,0.0,8.8222776e-05,2.490504514881495e-05,0.0046871789,1.5767310638113712e-06,1.5767310638113712e-06,5.53072265918064e-06,0.12913299,5.53072265918064e-06,0.0,2.65909216192774e-06,2.65909216192774e-06,6.39904095581847e-08,6.39904095581847e-08,0.0,0.0,0.0002326728989687211,0.0082109168,0.042637587,0.11208068339407941,0.042637587
0.0164218336,0.03789612289987004,0.01176311283711,0.0671467441464982,0.0023970123086321056,0.01180809810169632,0.002779593162249436,3.64726682823932e-07,6.70866528659158e-07,8.8992187e-05,2.5124091e-05,0.00013111054,1.3310885e-06,0.0,8.8992187e-05,2.510392690704522e-05,0.0047209435,1.587878051540583e-06,1.587878051540583e-06,5.824805480765039e-06,0.13019441,5.824805480765039e-06,0.0,2.3566137881373503e-06,2.3566137881373503e-06,5.9135837516826e-08,5.9135837516826e-08,0.0,0.0,0.0002361020983662021,0.0082109168,0.044426676,0.1118943791532743,0.044426676
0.0164218336,0.038216100688929236,0.011765593695725518,0.0676605453077148,0.0024152219690865,0.01180813422973024,0.0027796373046395906,3.6876622802977793e-07,6.82259669781102e-07,8.9782996e-05,2.5325115e-05,0.00013256114,1.1805695e-06,0.0,8.9782996e-05,2.530490125296045e-05,0.0047549452,1.599246190216875e-06,1.599246190216875e-06,6.1450768493447196e-06,0.13128549,6.1450768493447196e-06,0.0,2.0884972171574503e-06,2.0884972171574503e-06,5.4727126694086e-08,5.4727126694086e-08,0.0,0.0,0.0002400405147751996,0.0082109168,0.046356548,0.1117136497087375,0.046356548
0.0164218336,0.0385410117004438,0.01176796934854644,0.068180671839388,0.002433865666294148,0.01180817364213088,0.00277968211382763,3.7296302612372096e-07,6.95200122321408e-07,9.0596135e-05,2.5528272e-05,0.00013406821,1.0470711e-06,0.0,9.0596135e-05,2.55080102105136e-05,0.0047891848,1.610831359316256e-06,1.610831359316256e-06,6.49485064081875e-06,0.1324082,6.49485064081875e-06,0.0,1.8508426650618002e-06,1.8508426650618002e-06,5.07247050200625e-08,5.07247050200625e-08,0.0,0.0,0.000244509705412864,0.0082109168,0.048444375,0.111537777500924,0.048444375
0.0164218336,0.038871200451095315,0.01177032899495805,0.0687076191034989,0.002452956926139402,0.011808211412348158,0.002779727123147479,3.7733537703631794e-07,7.098175918267199e-07,9.1432637e-05,2.5733603e-05,0.00013563834,9.2866878e-07,0.0,9.1432637e-05,2.571329326850431e-05,0.0048236619,1.6226306387472022e-06,1.6226306387472022e-06,6.878252638963259e-06,0.13356474,6.878252638963259e-06,0.0,1.640192789785914e-06,1.640192789785914e-06,4.7093015785638416e-08,4.7093015785638416e-08,0.0,0.0,0.000249553417344192,0.0082109168,0.050710239,0.11136613002886421,0.050710239
0.0164218336,0.03920683191873894,0.01177270074691226,0.06924155564372239,0.0024724975562676835,0.0118082508247488,0.0027797721935040455,3.8190284502408003e-07,7.262521840318801e-07,9.2293674e-05,2.594115e-05,0.00013727856,8.2365528e-07,0.0,9.2293674e-05,2.59207911260685e-05,0.0048583769,1.6346409434091e-06,1.6346409434091e-06,7.3001646694828796e-06,0.13475764,7.3001646694828796e-06,0.0,1.453481739730272e-06,1.453481739730272e-06,4.380013291870944e-08,4.380013291870944e-08,0.0,0.0,0.0002552186361681528,0.0082109168,0.053177748,0.11119806780902158,0.053177748
0.0164218336,0.0395477997926652,0.011775025485354751,0.0697821250224506,0.0024924729986329974,0.01180829105824112,0.00277981773594048,3.86682755815104e-07,7.4465313380328e-07,9.3180577e-05,2.6150963e-05,0.00013899508,7.3051672e-07,0.0,9.3180577e-05,2.61305547884748e-05,0.0048933295,1.646860320701153e-06,1.646860320701153e-06,7.76633188664452e-06,0.13598976,7.76633188664452e-06,0.0,1.2879914153299361e-06,1.2879914153299361e-06,4.0817526032309684e-08,4.0817526032309684e-08,0.0,0.0,0.000261555027218433,0.0082109168,0.055874869,0.1110329522742178,0.055874869
0.0164218336,0.03989439230902974,0.0117773744717778,0.0703296522338598,0.00251289445560459,0.01180833129173344,0.0027798637782826263,3.91703997001128e-07,7.65231426783348e-07,9.4094852e-05,2.6363097e-05,0.00014079828,6.4791016e-07,0.0,9.4094852e-05,2.634263950035897e-05,0.0049285195,1.659287657114145e-06,1.659287657114145e-06,8.283861031070519e-06,0.13726437,8.283861031070519e-06,0.0,1.141311693951432e-06,1.141311693951432e-06,3.811976769928344e-08,3.811976769928344e-08,0.0,0.0,0.0002686333250792742,0.0082109168,0.058834959,0.1108701747095445,0.058834959
0.0164218336,0.04024632576139326,0.01177963239153168,0.07088344029678331,0.0025337373168473013,0.01180837316740912,0.002779909721000046,3.9698683129496096e-07,7.8818270111922e-07,9.5038245e-05,2.657762e-05,0.00014269547,5.7464479e-07,0.0,9.5038245e-05,2.6557113239960398e-05,0.0049639456,1.67192277980254e-06,1.67192277980254e-06,8.86111984873452e-06,0.13858524,8.86111984873452e-06,0.0,1.0113065051344692e-06,1.0113065051344692e-06,3.5684358828215646e-08,3.5684358828215646e-08,0.0,0.0,0.000276518150709284,0.0082109168,0.062098116,0.1107091342578437,0.062098116
0.0164218336,0.04060419876089559,0.01178197974463589,0.07144430010114,0.002555033030055618,0.0118084150430848,0.002779956463400964,4.0258075213861194e-07,8.1384168321504e-07,9.6012758e-05,2.6794602e-05,0.00014470439,5.0966412e-07,0.0,9.6012758e-05,2.677404598518366e-05,0.0049996073,1.684765958397732e-06,1.684765958397732e-06,9.50895683068659e-06,0.13995676,9.50895683068659e-06,0.0,8.960812625016001e-07,8.960812625016001e-07,3.3491548633941727e-08,3.3491548633941727e-08,0.0,0.0,0.000285321823534872,0.0082109168,0.065712981,0.11054919989987999,0.065712981
0.0164218336,0.040967509845373444,0.011784240348623,0.0720110853626613,0.0025767443668197215,0.011808457739852158,0.00278000307209856,4.08512869188655e-07,8.42479766253125e-07,9.7020704e-05,2.7014124e-05,0.00014683481,4.5203154e-07,0.0,9.7020704e-05,2.6993515465082877e-05,0.0050355019,1.6978183242730922e-06,1.6978183242730922e-06,1.024012911325391e-05,0.14138404,1.024012911325391e-05,0.0,7.93957192283646e-07,7.93957192283646e-07,3.152427774356094e-08,3.152427774356094e-08,0.0,0.0,0.00029513325857599996,0.0082109168,0.069739111,0.11038973136193171,0.069739111
